#	Note	UI	Rep affects guards	Rep affects shops	Rep affects NPC	ChestType	Rep dec flat	Rep dec min	Tell prof news	NPC Followers	Saturation	Softness	Death movie	Specific water	Death map 1	X	Y	Z	Dir	Death map 2	X	Y	Z	Dir	Skies (from clear to storm, divided by ",")	Loading pics
1	Jadame	1				1				x	0.9225	1.06	losegame		out01.odm	3560	7696	544	0	out02.odm	10219	-15624	265	-12	plansky3, plansky1, sky06, 6sky02, sky03, stormclds, 6sky19	loading1.pcx,loading2.pcx,loading3.pcx,loading4.pcx,loading5.pcx
2	Antagarich	2				2				x	0.82	1.11	7losegame	7wtrtyl	7out01.odm	12552	800	193	512	7out02.odm	-16832	12512	372	0	7plansky3, 7sky01, 6sky12, 6sky02, cloudsabove, sky04, 6sky19	7load1.pcx,7load2.pcx,7load3.pcx,7load4.pcx,7load5.pcx
3	Enroth	3	200		x	3		1	x	x	0.97375	0.965	6losegame	6wtrtyl	oute3.odm	-9728	-11319	160	512	oute3.odm	-9728	-11319	160	512	plansky3, plansky1, sky06, cloudsabove, sky03, sky04, 6sky19	6drag5.pcx,6load1.pcx
4	Between time	1				1			x		0.9225	1.06													plansky3, plansky1, sky06, 6sky02, sky03, stormclds, 6sky19	loading1.pcx,loading2.pcx,loading4.pcx
