#	Continent	RaceKind	RaceFamily	Race	Alignment	ClassKind	ClassStep	Class	RaceName	RacePlural	RaceAdj	ClassName
1	-1	-1	1	-1	-1	-1	-1	112				Lich
2	-1	-1	1	-1	-1	-1	-1	113				Greater Lich
3	-1	-1	1	-1	-1	-1	-1	118				Power Lich
